{
  "collection": "@nestjs/schematics",
  "sourceRoot": "apps/telegram-bot/src",
  "monorepo": true,
  "root": "apps/telegram-bot",
  "compilerOptions": {
    "webpack": true,
    "tsConfigPath": "apps/telegram-bot/tsconfig.app.json"
  },
  "projects": {
    "telegram-bot": {
      "type": "application",
      "root": "apps/telegram-bot",
      "entryFile": "main",
      "sourceRoot": "apps/telegram-bot/src",
      "compilerOptions": {
        "tsConfigPath": "apps/telegram-bot/tsconfig.app.json"
      }
    },
    "initial-loader": {
      "type": "application",
      "root": "apps/initial-loader",
      "entryFile": "main",
      "sourceRoot": "apps/initial-loader/src",
      "compilerOptions": {
        "tsConfigPath": "apps/initial-loader/tsconfig.app.json"
      }
    },
    "configuration": {
      "type": "library",
      "root": "libs/configuration",
      "entryFile": "index",
      "sourceRoot": "libs/configuration/src",
      "compilerOptions": {
        "tsConfigPath": "libs/configuration/tsconfig.lib.json"
      }
    },
    "dbo": {
      "type": "library",
      "root": "libs/dbo",
      "entryFile": "index",
      "sourceRoot": "libs/dbo/src",
      "compilerOptions": {
        "tsConfigPath": "libs/dbo/tsconfig.lib.json"
      }
    },
    "constants": {
      "type": "library",
      "root": "libs/constants",
      "entryFile": "index",
      "sourceRoot": "libs/constants/src",
      "compilerOptions": {
        "tsConfigPath": "libs/constants/tsconfig.lib.json"
      }
    },
    "utils": {
      "type": "library",
      "root": "libs/utils",
      "entryFile": "index",
      "sourceRoot": "libs/utils/src",
      "compilerOptions": {
        "tsConfigPath": "libs/utils/tsconfig.lib.json"
      }
    },
    "telegram-bot-service": {
      "type": "application",
      "root": "apps/telegram-bot-service",
      "entryFile": "main",
      "sourceRoot": "apps/telegram-bot-service/src",
      "compilerOptions": {
        "tsConfigPath": "apps/telegram-bot-service/tsconfig.app.json"
      }
    },
    "telegram-handler": {
      "type": "library",
      "root": "libs/telegram-handler",
      "entryFile": "index",
      "sourceRoot": "libs/telegram-handler/src",
      "compilerOptions": {
        "tsConfigPath": "libs/telegram-handler/tsconfig.lib.json"
      }
    },
    "redis-tools": {
      "type": "library",
      "root": "libs/redis-tools",
      "entryFile": "index",
      "sourceRoot": "libs/redis-tools/src",
      "compilerOptions": {
        "tsConfigPath": "libs/redis-tools/tsconfig.lib.json"
      }
    },
    "dao": {
      "type": "library",
      "root": "libs/dao",
      "entryFile": "index",
      "sourceRoot": "libs/dao/src",
      "compilerOptions": {
        "tsConfigPath": "libs/dao/tsconfig.lib.json"
      }
    },
    "common": {
      "type": "library",
      "root": "libs/common",
      "entryFile": "index",
      "sourceRoot": "libs/common/src",
      "compilerOptions": {
        "tsConfigPath": "libs/common/tsconfig.lib.json"
      }
    },
    "logger": {
      "type": "application",
      "root": "apps/logger",
      "entryFile": "main",
      "sourceRoot": "apps/logger/src",
      "compilerOptions": {
        "tsConfigPath": "apps/logger/tsconfig.app.json"
      }
    },
    "statistic": {
      "type": "application",
      "root": "apps/statistic",
      "entryFile": "main",
      "sourceRoot": "apps/statistic/src",
      "compilerOptions": {
        "tsConfigPath": "apps/statistic/tsconfig.app.json"
      }
    }
  }
}